<?xml version="1.0" encoding="utf-8"?>
<!-- Generator: Adobe Illustrator 23.0.1, SVG Export Plug-In . SVG Version: 6.00 Build 0)  -->
<svg version="1.1" id="Layer_1" xmlns="http://www.w3.org/2000/svg" xmlns:xlink="http://www.w3.org/1999/xlink" x="0px" y="0px"
	 viewBox="0 0 200 112" style="enable-background:new 0 0 200 112;" xml:space="preserve">
<style type="text/css">
	.st0{fill-rule:evenodd;clip-rule:evenodd;}
	.st1{fill-rule:evenodd;clip-rule:evenodd;fill:#FFFFFF;}
</style>
<g>
	<path class="st0" d="M105,65.9"/>
	<path class="st0" d="M0,0.1h16.9c0,0,18.8,21.2,25.6,35.1c0.1,0.1,0-25-0.6-28.6c-0.2-1.1-0.4-2.5-2.5-2.9
		c-0.4-0.1-4.6-0.4-4.6-0.4V0h18.5v3.2c0,0-3.5,0.3-3.9,0.5c-0.4,0.2-1.8,1-1.9,4.7c-0.1,3.7-0.2,6.5-0.3,9.2c0,0.9,0,32.8,0,32.8
		h-7.5c0,0-16-26.4-28.5-41v23.6c0,0,0,9.3,0.4,10.9c0.4,1.6,0.5,2.7,3.6,2.9c3.1,0.2,3.5,0.4,3.5,0.4v3.2H0.1v-3.2
		c0,0,4.1-0.2,4.8-1.2c0.7-1,1.3-2,1.3-14.2V7c0,0,0.2-2.3-0.6-2.9C4.7,3.5,2.6,3.3,0,3.2L0,0.1z"/>
	<path class="st0" d="M52.1,12.9l11-1.7l0.5,0.6l0,20.1c0,0-0.2,5.4,5.2,5.2c2.5-0.1,5-1.9,4.8-6.4c0,0,0-12.9,0-12.9s0.1-1.9-1-2
		c-1.1-0.1-2.4-0.4-2.4-0.4v-2.4l10.8-1.7l0.6,0.6v24.1c0,0-0.1,2.1,1.6,2.3c1.8,0.2,2.3,0.2,2.3,0.2V41H74.3l-0.5-3.1
		c0,0-5,4-10.2,3.7c-5.2-0.3-7.9-2.9-8-9.4c0-0.5,0-13.5,0-13.5s0-2-0.3-2.4c-0.3-0.4-0.2-0.6-1.6-0.8c-1.4-0.2-1.8-0.2-1.8-0.2
		L52.1,12.9L52.1,12.9z"/>
	<path class="st0" d="M95.6,20.8c0,4,2.1,7.3,4.8,7.3c2.6,0,4.8-3.3,4.8-7.3c0-4-2.1-7.3-4.8-7.3C97.7,13.5,95.6,16.8,95.6,20.8z
		 M117.3,10.4l-1.4,4.9l-3.8,0.7c0,0,3.3,5.3-0.2,10.4c-4.2,6.2-14.5,4.8-14.5,4.8s-3.3,1-2.4,2.9c0.9,1.9,5.7,2.1,6.5,2.1
		c13.8,0.7,15.4,3,15.4,3l-5.3,3.6C103,39.8,97.3,44,97.3,44c-2.3-0.4-8.8-2.3-9.6-7.2c-0.8-5,5.4-6.6,5.4-6.6
		C86,28,86.3,20.3,87,18.2c2.3-6.5,8.5-8,13.6-8c5.1,0,8.1,2,8.1,2l7.6-2.7L117.3,10.4z"/>
	<path class="st0" d="M126,20.8c0,4,2.1,7.3,4.8,7.3c2.6,0,4.8-3.3,4.8-7.3c0-4-2.1-7.3-4.8-7.3C128.1,13.5,126,16.8,126,20.8z
		 M135.9,37.2c5.9,1.1,11,4,13.8,6.9h-9.9c-7-3.8-14.7-1.3-14.7-1.3s-6-1-6.8-6c-0.8-5,5.4-6.6,5.4-6.6c-7.1-2.1-6.8-9.9-6.1-11.9
		c2.3-6.5,8.5-8,13.6-8c5.1,0,8.1,2,8.1,2l7.6-2.7l0.9,0.9l-1.4,4.9l-3.8,0.7c0,0,3.3,5.3-0.2,10.4c-4.2,6.2-14.5,4.8-14.5,4.8
		s-3.4,1-2.4,2.9C126.8,36,130.9,36.2,135.9,37.2z"/>
	<path class="st0" d="M156.1,22.9h8c0,0,0.9,0.1,1.1-0.4c0.2-0.5,0.5-2.2,0-4.2c-0.5-2-1.5-4-3.8-4.1C161,14.1,156.5,14,156.1,22.9z
		 M156.1,26.1c-0.5,0.7,0.3,11.2,6.9,11.1c6.6-0.1,8.1-5.8,8.1-5.8l2.4,1.5c-3.4,9.4-10.5,8.9-12.8,8.9c-2.7-0.1-13.1-1.3-13.1-15.5
		c0-14.1,11.5-15.1,13.7-15.1c2.2,0,6,0.3,9,2.8c3,2.5,3.7,6.7,3.7,9.5c0.1,2.8-2.6,2.7-2.6,2.7L156.1,26.1L156.1,26.1z"/>
	<path class="st0" d="M187.5,4.5h-3.3c0,0-1.3,7.4-8.3,7.4v3.3h3.5v18.9c0,0-0.4,7.6,6.9,7.6c1.6,0,5.3-0.6,8.8-3.1l-0.7-2.1
		c0,0-3.5,1.4-5.3,0.2c-1.8-1.3-1.6-4.5-1.6-4.5V15.2h6.2v-3.3h-6.2L187.5,4.5L187.5,4.5z"/>
	<g>
		<path d="M60,45.8h132.5c4.2,0,7.5,3.4,7.5,7.5v1.8c0,4.2-3.4,7.5-7.5,7.5H60c-4.2,0-7.5-3.4-7.5-7.5v-1.8
			C52.4,49.2,55.8,45.8,60,45.8L60,45.8z"/>
	</g>
	<g>
		<path class="st1" d="M61.2,58.4h2.3v-0.2c-0.3-0.1-0.4-0.2-0.4-0.5v-5.3l2.9,5.9l3.1-5.9v5.3c0,0.3-0.1,0.4-0.4,0.5v0.2h2.4v-0.2
			c-0.3-0.1-0.4-0.2-0.4-0.5v-7c0-0.3,0.1-0.4,0.4-0.5v-0.2h-2.9v0.2c0.2,0.1,0.3,0.1,0.3,0.3c0,0.1,0,0.2-0.1,0.3l-2.3,4.4L64,51
			c0-0.1-0.1-0.2-0.1-0.3c0-0.2,0.1-0.3,0.3-0.3v-0.2h-3v0.2c0.3,0.1,0.4,0.2,0.4,0.5v7c0,0.3-0.1,0.4-0.4,0.5L61.2,58.4L61.2,58.4z
			"/>
		<path class="st1" d="M87.1,52.2l1.3,2.9h-2.7L87.1,52.2z M82.5,58.4H85v-0.2c-0.3-0.1-0.4-0.2-0.4-0.4c0-0.1,0-0.2,0.1-0.3
			l0.5-1.3h3.7l0.6,1.3c0,0.1,0.1,0.2,0.1,0.3c0,0.2-0.1,0.3-0.4,0.4v0.2H92v-0.2c-0.4-0.1-0.5-0.4-0.7-0.8L88.2,51
			c0-0.1-0.1-0.2-0.1-0.3c0-0.2,0.1-0.2,0.4-0.3v-0.2h-2.7v0.2c0.3,0.1,0.4,0.2,0.4,0.4c0,0.1,0,0.1-0.1,0.2l-3,6.4
			c-0.2,0.4-0.3,0.7-0.7,0.8L82.5,58.4L82.5,58.4z"/>
		<path class="st1" d="M107.9,51.6c1.4,0,2.1,0.2,2.1,1.1s-0.7,1.2-2,1.2h-2.5v-2.3H107.9z M103.4,58.4h2.5v-0.2
			c-0.3-0.1-0.4-0.2-0.4-0.5V55h2.2l1.7,2.5c0.1,0.2,0.2,0.4,0.2,0.4c0,0.1-0.1,0.2-0.3,0.3v0.2h2.9v-0.2c-0.4-0.2-0.7-0.4-0.9-0.8
			l-1.7-2.4c1.4-0.4,2.1-1.2,2.1-2.4c0-1.5-1.1-2.4-3.3-2.4h-5v0.2c0.3,0.1,0.4,0.2,0.4,0.5v7c0,0.3-0.1,0.4-0.4,0.5L103.4,58.4
			L103.4,58.4z"/>
		<path class="st1" d="M126.1,57.8v-2.2l1.2-1l2.4,2.9c0.1,0.2,0.2,0.3,0.2,0.4c0,0.1-0.1,0.2-0.3,0.3v0.2h3.2v-0.2
			c-0.4-0.2-0.7-0.5-1-0.8l-3.1-3.9l2.6-2.2c0.2-0.1,0.5-0.5,1.3-0.9v-0.2h-3.4v0.2c0.2,0,0.4,0.2,0.4,0.3c0,0.2-0.1,0.2-0.3,0.4
			l-3.2,2.7v-2.8c0-0.3,0.1-0.4,0.4-0.5v-0.2H124v0.2c0.3,0.1,0.4,0.2,0.4,0.5v7c0,0.3-0.1,0.4-0.4,0.5v0.2h2.5v-0.2
			C126.1,58.1,126.1,58.1,126.1,57.8z"/>
		<path class="st1" d="M151.5,56.9h-5.1v-2.2h3.2c0.3,0,0.4,0.1,0.4,0.4h0.2V53H150c-0.1,0.3-0.2,0.4-0.4,0.4h-3.2v-1.8h5
			c0.3,0,0.4,0.1,0.4,0.4h0.2v-2.3h-0.2c-0.1,0.3-0.2,0.4-0.4,0.4h-7.2v0.2c0.3,0.1,0.4,0.2,0.4,0.5v7c0,0.3-0.1,0.4-0.4,0.5v0.2
			h7.3c0.3,0,0.4,0.1,0.4,0.4h0.2v-2.3h-0.2C151.8,56.9,151.7,56.9,151.5,56.9z"/>
		<path class="st1" d="M164.4,51.6h2.5v6.2c0,0.3-0.1,0.4-0.4,0.5v0.2h2.5v-0.2c-0.3-0.1-0.4-0.2-0.4-0.5v-6.2h2.5
			c0.3,0,0.4,0.1,0.4,0.4h0.2v-2.3h-0.2c-0.1,0.3-0.2,0.4-0.4,0.4h-6.7c-0.3,0-0.4-0.1-0.4-0.4h-0.2V52h0.2
			C164,51.6,164.1,51.6,164.4,51.6z"/>
		<path class="st1" d="M183.3,57.8l0.2,0.1c0-0.1,0.1-0.2,0.2-0.2c0.3,0,1.3,0.9,3.5,0.9c2.4,0,4-1.2,4-2.7c0-1.3-1-2.2-3-2.5
			c-2-0.2-3.1,0-3.1-0.9c0-0.6,0.7-1,1.9-1c1.5,0,2.8,0.8,2.8,1.2c0,0,0,0,0,0.1l0.3,0.1l1-2l-0.2-0.1c-0.1,0.1-0.2,0.2-0.3,0.2
			c-0.3,0-1.6-0.9-3.5-0.9c-2.3,0-3.7,1.1-3.7,2.7c0,1.4,0.9,2.1,2.9,2.3c1.8,0.2,3.2-0.1,3.2,0.9c0,0.6-0.8,1.1-2.1,1.1
			c-1.5,0-3-0.7-3-1c0,0,0-0.1,0-0.2l-0.2-0.1L183.3,57.8z"/>
	</g>
	<path d="M131.2,89.8c-14.2,0-25.7-10.7-26.7-24.5h7.8c0,10.4,8.4,19.5,18.9,19.5c10.4,0,19-9.1,19-19.5h7.7
		C156.9,79.1,145.4,89.8,131.2,89.8z"/>
	<path d="M105.9,85.2c2.1,0,4.1-0.3,6-1l4.9,3.3c-3.3,1.5-7,2.3-10.8,2.3c-14.2,0-25.7-10.7-26.7-24.5h7.6
		C86.8,75.7,95.4,85.2,105.9,85.2z"/>
</g>
<g>
	<path d="M64.4,99.5c3.1,0.8,4.7,1.9,4.7,4.3c0,2.8-2.2,4.4-5.2,4.4c-2.2,0-4.4-0.8-6.1-2.4l1.6-1.8c1.4,1.2,2.8,1.9,4.6,1.9
		c1.6,0,2.6-0.7,2.6-1.9c0-1.1-0.6-1.6-3.3-2.3c-3.1-0.8-4.9-1.7-4.9-4.4c0-2.6,2.1-4.3,5-4.3c2.1,0,3.8,0.7,5.3,1.8l-1.4,2
		c-1.3-1-2.6-1.5-4-1.5c-1.5,0-2.4,0.8-2.4,1.8C60.9,98.3,61.6,98.8,64.4,99.5z"/>
	<path d="M77.1,108.3c-3.4,0-5.9-2.6-5.9-5.8c0-3.2,2.5-5.8,5.9-5.8s5.9,2.6,5.9,5.8C83.1,105.6,80.6,108.3,77.1,108.3z M77.1,98.9
		c-2,0-3.3,1.6-3.3,3.5c0,2,1.4,3.6,3.4,3.6c2.1,0,3.4-1.6,3.4-3.5C80.5,100.5,79.1,98.9,77.1,98.9z"/>
	<path d="M88.2,108h-2.5V96.9h2.5v1.7c0.7-1,1.7-2,3.5-2c2.5,0,3.9,1.7,3.9,4.3v7.1h-2.5v-6.3c0-1.7-0.9-2.7-2.4-2.7
		c-1.5,0-2.5,1-2.5,2.8V108z"/>
	<path d="M104,108.3c-3.4,0-5.9-2.6-5.9-5.8c0-3.2,2.5-5.8,5.9-5.8s5.9,2.6,5.9,5.8C109.9,105.6,107.4,108.3,104,108.3z M104,98.9
		c-2,0-3.3,1.6-3.3,3.5c0,2,1.4,3.6,3.4,3.6c2.1,0,3.4-1.6,3.4-3.5C107.4,100.5,106,98.9,104,98.9z"/>
	<path d="M125.5,96.7c2.4,0,3.9,1.5,3.9,4.2v7.1h-2.5v-6.3c0-1.8-0.8-2.7-2.2-2.7c-1.4,0-2.4,1-2.4,2.8v6.3h-2.5v-6.3
		c0-1.7-0.8-2.7-2.2-2.7c-1.4,0-2.4,1.1-2.4,2.8v6.2h-2.5V96.9h2.5v1.7c0.7-1,1.7-1.9,3.4-1.9c1.6,0,2.7,0.8,3.3,2
		C122.6,97.5,123.8,96.7,125.5,96.7z"/>
	<path d="M139.2,108v-1.4c-0.8,0.9-1.9,1.6-3.6,1.6c-2.1,0-3.9-1.2-3.9-3.4v0c0-2.4,1.9-3.6,4.5-3.6c1.3,0,2.2,0.2,3.1,0.5v-0.3
		c0-1.5-1-2.4-2.7-2.4c-1.2,0-2.2,0.3-3.2,0.7l-0.7-2c1.2-0.5,2.4-0.9,4.2-0.9c3.3,0,4.9,1.7,4.9,4.7v6.6H139.2z M139.3,103.3
		c-0.7-0.3-1.6-0.4-2.5-0.4c-1.6,0-2.5,0.7-2.5,1.8v0c0,1,0.9,1.6,2.1,1.6c1.7,0,2.9-0.9,2.9-2.3V103.3z"/>
</g>
</svg>
