<svg xmlns="http://www.w3.org/2000/svg" width="40" height="40" viewBox="0 0 40 40">
  <g id="Group_52" data-name="Group 52" transform="translate(-703 -859)">
    <rect id="Rectangle_62" data-name="Rectangle 62" width="40" height="40" rx="5" transform="translate(703 859)" fill="#ddd"/>
    <text id="_" data-name="􀋭" transform="translate(708.333 886.111)" font-size="21" font-family="HelveticaNeue-Bold, SF Compact" font-weight="700"><tspan x="0" y="0">􀋭</tspan></text>
  </g>
</svg>
